{
  "id": "43e83958-3aba-4e8e-8ae7-f1a9e8aae413",
  "name": "How To",
  "auto": true,
  "contexts": [],
  "responses": [
    {
      "resetContexts": false,
      "affectedContexts": [],
      "parameters": [
        {
          "id": "1ed22e6b-fc5b-44b2-bc4c-033d1bc4a502",
          "required": false,
          "dataType": "@Activity",
          "name": "Activity",
          "value": "$Activity",
          "isList": false
        }
      ],
      "messages": [
        {
          "type": 0,
          "speech": []
        }
      ],
      "defaultResponsePlatforms": {},
      "speech": []
    }
  ],
  "priority": 500000,
  "cortanaCommand": {
    "navigateOrService": "NAVIGATE",
    "target": ""
  },
  "webhookUsed": true,
  "webhookForSlotFilling": false,
  "lastUpdate": 1532404920,
  "fallbackIntent": false,
  "events": [],
  "userSays": [
    {
      "id": "5dcbdf74-2869-4fe2-803e-278a990ba8ac",
      "data": [
        {
          "text": "how do I "
        },
        {
          "text": "join the Developer Students Club",
          "alias": "Activity",
          "meta": "@Activity",
          "userDefined": false
        }
      ],
      "isTemplate": false,
      "count": 0,
      "updated": 1532400735,
      "isAuto": false
    },
    {
      "id": "eb8179e0-55de-461e-af03-3e33340fe7f6",
      "data": [
        {
          "text": "how do I "
        },
        {
          "text": "join DSC",
          "alias": "Activity",
          "meta": "@Activity",
          "userDefined": false
        }
      ],
      "isTemplate": false,
      "count": 0,
      "updated": 1532400735,
      "isAuto": false
    },
    {
      "id": "7c0c4c75-209e-49a0-9347-0745d8d114d1",
      "data": [
        {
          "text": "how to "
        },
        {
          "text": "join DSC",
          "alias": "Activity",
          "meta": "@Activity",
          "userDefined": false
        }
      ],
      "isTemplate": false,
      "count": 0,
      "updated": 1532400735,
      "isAuto": false
    }
  ],
  "followUpIntents": [],
  "liveAgentHandoff": false,
  "endInteraction": false,
  "templates": []
}